[
    {
        "id": 37,
        "category_id": 1,
        "title": "最新消息範例",
        "content": "最新消息範例",
        "date": "2021-06-09",
        "share_comment_url": "https://toyway.jhong-demo.com.tw/news/news?id=37",
        "img": "https://toyway.jhong-demo.com.tw/storage/photos/1/img-article-02.jpg",
        "sort": 0,
        "state": 1,
        "delete": 1,
        "created_at": "2021-06-09T06:18:50.000000Z",
        "updated_at": "2021-06-09T07:35:48.000000Z"
    },
    {
        "id": 38,
        "category_id": 2,
        "title": "新品上市範例",
        "content": "新品上市範例",
        "date": "2021-06-08",
        "share_comment_url": "https://toyway.jhong-demo.com.tw/news/newProduct?id=38",
        "img": "https://toyway.jhong-demo.com.tw/storage/photos/1/article-img2.png",
        "sort": 0,
        "state": 0,
        "delete": 1,
        "created_at": "2021-06-09T06:19:26.000000Z",
        "updated_at": "2021-06-09T07:35:46.000000Z"
    },
    {
        "id": 39,
        "category_id": 3,
        "title": "商品預告範例",
        "content": "商品預告範例",
        "date": "2021-06-09",
        "share_comment_url": "https://toyway.jhong-demo.com.tw/news/reviewProduct?id=39",
        "img": "https://toyway.jhong-demo.com.tw/storage/photos/1/img-02.png",
        "sort": 0,
        "state": 1,
        "delete": 1,
        "created_at": "2021-06-09T06:20:12.000000Z",
        "updated_at": "2021-06-09T07:35:51.000000Z"
    },
    {
        "id": 40,
        "category_id": 3,
        "title": "喵喵！做工的貓要發車了～💨💨<br>安全第一！可愛也要第一《手推喵》",
        "content": "Shine-G品牌，9月新品預告<strong><span style=\"color: #e67e23;\">《手推喵》</span></strong><br />將貓貓結合單輪手推車，輪胎與貓手收是連動式設計<br />一起運轉時，勤快的模樣謎得好可愛 (也很像鍛鍊腹肌🤣)<br /><br /><iframe src=\"https://www.youtube.com/embed/mXwhqv7lB-g\" width=\"560\" height=\"314\" allowfullscreen=\"allowfullscreen\"></iframe><br /><iframe style=\"width: 696px; height: 390px;\" src=\"https://www.youtube.com/embed/mXwhqv7lB-g\" width=\"696\" height=\"390\" allowfullscreen=\"allowfullscreen\"></iframe><br /><br />每款搭配一頂貓耳可外露的可拆式工程帽&nbsp;<br />安全第一！可愛也要第一！<br />全5種，各400日圓，可放置小物也可搭配人型公仔　<br />　　<br /><img src=\"/storage/photos/3/Teaser/2021/9/taeoshineko.jpg\" alt=\"\" width=\"100%\" />　<br />概念來自建築工程用的小型單輪手推車<br />因方便通行狹窄的鷹架通道猶如擅長走險路的貓步🐱<br />而輪胎行進的聲音也像貓貓的咕嚕聲&nbsp;<br />所以在日本單輪手推車又被稱作 <span style=\"color: #e67e23;\">貓車</span>&nbsp;<br />還有各種眾說紛紜又有點牽強的起源已不可考<br />但讓你知道這個商品滿有梗又可愛就夠了(⁎⁍̴̛ᴗ⁍̴̛⁎) <br /><br />　　<br />⛔️預計2021年9月上市<br />⛔️監修中，可能會與圖片有所差異，敬請諒解<br />⚠️請向玩具店或網拍商家做預購<br />　　　　　　　<br /><br />#猫車 #手推車 #ておしネコ #ねこ #貓 #東匯玩具&nbsp;<br />#扭蛋 #轉蛋 #ガチャ #gacha #カプセルトイ",
        "date": "2021-05-07",
        "share_comment_url": "https://toyway.jhong-demo.com.tw/news/reviewProduct?id=40",
        "img": "https://toyway.jhong-demo.com.tw/storage/photos/3/Teaser/2021/9/testpic.jpg",
        "sort": 0,
        "state": 1,
        "delete": 0,
        "created_at": "2021-06-09T08:55:31.000000Z",
        "updated_at": "2021-06-21T02:32:29.000000Z"
    },
    {
        "id": 41,
        "category_id": 3,
        "title": "日本人氣插畫家-ぽん吉 ✕ 動物星球 ✕ 朵朵窩 《野菜妖精-白菜犬》<br>菜狗要你別挑食啦～～",
        "content": "<strong><span style=\"font-size: 18pt;\"><br />📣『青菜底呷啦！』&nbsp;<br /><br /><br /></span></strong><br /><img src=\"/storage/photos/3/Teaser/2021/9/751748.jpg\" alt=\"\" width=\"100%\" /><br /><br />日本人氣插畫家<span style=\"color: #e67e23;\"> ぽん吉</span> 為了吸引孩童對蔬果產生好感，減少挑食行為<br />於是創作了蔬果結合動物的\"新品種\"系列插畫<span style=\"color: #e67e23;\">「蔬菜妖精」</span><br />趣味溫馨的療癒風格在全球各地廣受歡迎&nbsp;<br /><br />繼stasto品牌7月扭蛋《動物愛好系列-蔬菜妖精造型公仔》之後<br />其中最超人氣的菜狗<span style=\"color: #e67e23;\"> 白菜犬</span>，也將於9月推出大型公仔啦～～<br /><br />ぽん吉正版授權 ✕ 動物星球 ✕ 朵朵窩出品<br /><strong><span style=\"color: #e67e23;\">《野菜妖精-白菜犬》</span></strong>尺寸約19*15*12cm &nbsp;<br /><br /><img src=\"/storage/photos/3/Teaser/2021/9/751747.jpg\" alt=\"\" width=\"100%\" /><br /><img src=\"/storage/photos/3/Teaser/2021/9/588333.jpg\" alt=\"\" width=\"100%\" /><br />忠實還原狗勾討喜呆萌的神韻、圓潤的身形<br />以及青翠菜葉的層次和葉脈細節<br />好一顆美麗的翠玉白柴～預計9月上市<br />⛔️預購請洽玩具店或網拍商家<br />⛔️監修中，可能會與圖片有所差異，敬請諒解<br /><br /><img src=\"/storage/photos/3/Teaser/2021/9/751746.jpg\" alt=\"\" width=\"100%\" />",
        "date": "2021-05-21",
        "share_comment_url": "https://toyway.jhong-demo.com.tw/news/reviewProduct?id=41",
        "img": "https://toyway.jhong-demo.com.tw/storage/photos/3/Teaser/2021/9/testpic02.jpg",
        "sort": 0,
        "state": 1,
        "delete": 0,
        "created_at": "2021-06-09T09:24:44.000000Z",
        "updated_at": "2021-06-23T03:36:59.000000Z"
    },
    {
        "id": 42,
        "category_id": 3,
        "title": "超～～人氣的鳥鳥們第2彈來囉😍<br>《抱緊處理的小鳥珠鍊吊飾P2》",
        "content": "Qualia品牌<strong><span style=\"color: #e67e23;\">《抱緊處理的小鳥珠鍊吊飾P2》</span></strong><br />全8種，各300日圓<br />這次陣容以第一彈的異色為主，但多了神祕隱藏款<br />還有黃化玄鳳、銀喉長尾山雀<br /><img src=\"/storage/photos/3/Teaser/2021/9/00137362001.jpg\" alt=\"\" width=\"100%\" /><br />⛔️預計2021年9月上市<br />⛔️預購請洽全台玩具店或網拍賣場<br />⛔️監修中，可能會與圖片有所差異，敬請諒解　　　<br />　　　　　　　　　　　　　　　　　　　　　　　<br />👍正版扭蛋玩具批發、扭蛋機販售 請洽【東匯玩具】<br />#東匯玩具 #扭蛋 #轉蛋 #カプセルトイ #capsuletoy&nbsp;<br />#鳥 #鸚鵡 #虎皮 #玄鳳 #インコ #むぎゅっ鳥<br /><img src=\"/storage/photos/3/Teaser/2021/9/001373620.jpg\" alt=\"\" width=\"100%\" /><br />",
        "date": "2021-05-26",
        "share_comment_url": "https://toyway.jhong-demo.com.tw/news/reviewProduct?id=42",
        "img": "https://toyway.jhong-demo.com.tw/storage/photos/3/Teaser/2021/9/001373620.jpg",
        "sort": 0,
        "state": 1,
        "delete": 0,
        "created_at": "2021-06-09T09:41:45.000000Z",
        "updated_at": "2021-06-15T02:32:58.000000Z"
    },
    {
        "id": 43,
        "category_id": 3,
        "title": "《燃燒殆盡喵公仔》向經典漫畫致敬！！",
        "content": "<span style=\"font-size: 14pt;\">「阿喵～ 阿喵～你怎麼沒感覺！？？」🥺</span><br /><span style=\"font-size: 14pt;\">「我已經燃燒殆盡了，只剩下雪白的灰....」<br /><br /></span><img src=\"/storage/photos/3/Teaser/2021/9/002373644.jpg\" alt=\"\" width=\"100%\" /><br /><br />Qualia品牌9月新品<span style=\"color: #e67e23;\"><strong>《燃燒殆盡喵公仔》</strong></span><br />致敬經典漫畫《小拳王》的知名場景🤣<br />描述主角在拳賽上用盡洪荒之力後沒有遺憾的滿足狀態<br />不過這個熱血感人的場面在後期已被梗圖迷因化🤣<br />在鬥志盡失或身心被掏空的無力狀態也很適用<br />不知道這些斷了電的貓貓們經歷了些什麼<br />滿足微笑的表情也完美複製<br />讓熟悉原作的粉絲們一看就被逗樂了<br />全5種，各300日圓<br />⛔️預計2021年9月上市<br />⛔️預購請洽全台玩具店或網拍賣場<br />⛔️監修中，可能會與圖片有所差異，敬請諒解<br />　　　　　　　　　　　　　　　　　　<br />#東匯玩具 #扭蛋 #轉蛋 #カプセルトイ #capsuletoy&nbsp;<br />#燃燒殆盡 #無力貓 #小拳貓 #あしたのジョー",
        "date": "2021-05-26",
        "share_comment_url": "https://toyway.jhong-demo.com.tw/news/reviewProduct?id=43",
        "img": "https://toyway.jhong-demo.com.tw/storage/photos/3/Teaser/2021/9/00237.jpg",
        "sort": 0,
        "state": 1,
        "delete": 0,
        "created_at": "2021-06-10T06:30:57.000000Z",
        "updated_at": "2021-06-15T02:34:41.000000Z"
    },
    {
        "id": 44,
        "category_id": 3,
        "title": "看好了世界，髮型崩壞我只示範一次🥀《髮型很適合您》^^  (咁啊捏)",
        "content": "堪稱人生一大難事的剪髮<br />最怕遇到溝通不良與個人主義過甚的設計師<br />本商品的貓貓們道盡了一切😅<br /><br /><img src=\"/storage/photos/3/Teaser/2021/9/003827909.jpg\" alt=\"\" width=\"100%\" /><br /><br />Yell品牌9月新品<span style=\"font-size: 12pt;\"><strong><span style=\"color: #e67e23;\">《髮型很適合您》</span></strong>^^</span><br />全5種，各200日圓<br />收錄了爆炸頭、龐克頭、飛機頭、丁髷頭及妹妹頭&nbsp;&nbsp;<span style=\"font-size: 8pt;\">(妹妹頭? 河童? 怎麼很像某圓點藝術大師🤣)&nbsp;</span><br />各種委屈但不說的眼神死貓貓<br />顯然已燃燒殆盡，只剩下雪白的灰....<br /><br /><br />⛔️預計2021年9月上市<br />⛔️預購請洽全台玩具店或網拍賣場<br />⛔️監修中，可能會與圖片有所差異，敬請諒解　　　<br />　　　　　　　　　　　　　　　　　　　　　　　　　　<br />#東匯玩具 #扭蛋 #轉蛋 #カプセルトイ #capsuletoy&nbsp;<br />#髮型 #剪髮 #美髮 #造型崩壞 #前衛過了頭 #貓",
        "date": "2021-05-28",
        "share_comment_url": "https://toyway.jhong-demo.com.tw/news/reviewProduct?id=44",
        "img": "https://toyway.jhong-demo.com.tw/storage/photos/3/Teaser/2021/9/0038.jpg",
        "sort": 0,
        "state": 1,
        "delete": 0,
        "created_at": "2021-06-10T06:41:05.000000Z",
        "updated_at": "2021-06-15T02:31:58.000000Z"
    },
    {
        "id": 45,
        "category_id": 3,
        "title": "再不回家小心被抓去做蚵仔🤣《動物愛好系列-散步巴哥公仔》",
        "content": "繼《散步柴犬》、《逆風博美》後<br />stasto品牌再推出 👉<strong><span style=\"color: #e67e23;\">《動物愛好系列-散步巴哥公仔》<br /></span></strong><img src=\"/storage/photos/3/Teaser/2021/9/001712778.jpg\" alt=\"\" width=\"100%\" /><br /><br />5種款式(共10種)，各200日圓<br />不想回家款、澡盆款、玩耍款、毛巾款、打包款<br />&nbsp; &nbsp;<br />⛔️預計2021年9月上市<br />⛔️預購請洽全台玩具店或網拍賣場<br />⛔️監修中，可能會與圖片有所差異，敬請諒解　　　<br />　　　　　　　　　　　　　　　　　　　　　　　<br />#東匯玩具 #扭蛋 #轉蛋 #カプセルトイ&nbsp;<br />#散步巴哥公仔 #散步巴哥 #巴哥 #狗",
        "date": "2021-05-29",
        "share_comment_url": "https://toyway.jhong-demo.com.tw/news/reviewProduct?id=45",
        "img": "https://toyway.jhong-demo.com.tw/storage/photos/3/Teaser/2021/9/001712.jpg",
        "sort": 0,
        "state": 1,
        "delete": 0,
        "created_at": "2021-06-10T06:49:24.000000Z",
        "updated_at": "2021-06-15T02:34:53.000000Z"
    },
    {
        "id": 46,
        "category_id": 3,
        "title": "汪！好運旺旺來🍍《野菜妖精-菠蘿犬》🍍<br>ぽん吉授權 ✕ 動物星球 ✕ 朵朵窩出品",
        "content": "<span style=\"font-size: 12pt;\">近期玩具圈最炙手可熱的可口系列<strong>「野菜妖精」</strong></span><br /><span style=\"font-size: 12pt;\">繼<strong>白菜犬</strong>後，來顆水果營養均衡一下吧～<br /></span><br /><br /><br /><img src=\"/storage/photos/3/Teaser/2021/9/FB001.jpg\" alt=\"\" width=\"100%\" /><br /><br />當貴賓狗遇上鳳梨，這是什麼<strong><span style=\"font-size: 12pt;\">汪上加旺</span></strong>的香甜組合！？😍<br />日本插畫家ぽん吉正版授權 ✕ 動物星球 ✕ 朵朵窩出品<br /><span style=\"color: #e67e23;\"><strong>《野菜妖精-菠蘿犬》<br /><br /></strong></span><img src=\"/storage/photos/3/Teaser/2021/9/053001.jpg\" alt=\"\" width=\"100%\" /><br /><img src=\"/storage/photos/3/Teaser/2021/9/FB003.jpg\" alt=\"\" width=\"100%\" /><br />彷彿身穿鳳梨盔甲、頂著沖天炮頭的貴賓狗<br />圓潤的身形與肉肉的臉頰、乖巧撒嬌的萌樣真的很欠揉😆<br />有著開運意味的旺來狗，尺寸約14*15*11cm<br /><img src=\"/storage/photos/3/Teaser/2021/9/FB002.jpg\" alt=\"\" width=\"100%\" /><br /><br />⛔️預計2021年9月上市<br />⛔️預購請洽玩具店或網拍商家<br />⛔️監修中，可能會與圖片有所差異，敬請諒解　<br />　　　　<br />#東匯玩具 #公仔 #蔬菜妖精 #野菜妖精 #菠蘿犬&nbsp;<br />#菠蘿狗 #鳳梨狗 #旺來狗 #鳳梨 #貴賓狗 #ぽん吉<br /><br /><img src=\"/storage/photos/3/Teaser/2021/9/FB005.jpg\" alt=\"\" width=\"100%\" />",
        "date": "2021-06-01",
        "share_comment_url": "https://toyway.jhong-demo.com.tw/news/reviewProduct?id=46",
        "img": "https://toyway.jhong-demo.com.tw/storage/photos/3/Teaser/2021/9/0017120610.jpg",
        "sort": 0,
        "state": 1,
        "delete": 0,
        "created_at": "2021-06-10T07:05:19.000000Z",
        "updated_at": "2021-06-23T03:35:57.000000Z"
    },
    {
        "id": 47,
        "category_id": 3,
        "title": "巷弄的守護神、惡犬的夢魘《貓神合體！百獸大帝GX》<br>超ㄎㄧㄤ的貓貓機器人出擊！！<br> ",
        "content": "<span style=\"font-size: 14pt;\">『貓、紙箱、正義的味道！』 </span><span style=\"font-size: 14pt;\">街頭巷尾的守護神、惡犬的夢魘&nbsp;</span><br />六隻神選之貓肩負起維護世界和平的使命，面對地方惡犬展開一場愛與和平的冒險💥<br /><br /><br /><br /><img src=\"/storage/photos/3/Teaser/2021/9/fb002.jpg\" alt=\"\" width=\"100%\" /><br />　　　　　<br /><span style=\"font-size: 12pt;\">「bId Toys 腦室設計」</span>腦洞大開的魔性新系列<span style=\"color: #e67e23;\"><strong><span style=\"font-size: 12pt;\"> 超動物魂</span></strong></span><br />將貓貓打造成新世紀的正義使者<br />運用了貓貓最愛的紙箱作為機器人合體的載體<br />究極變形超可動的<span style=\"font-size: 14pt;\"><strong><span style=\"color: #e67e23;\">《貓神合體！百獸大帝GX》</span></strong> </span>參上！！<br />重新詮釋變形機器人的硬派造型<br />每隻貓貓煞氣的狠臉，保證嚇得惡犬原地解散💨<br /><strong>百獸大帝的臉部還可轉換\"戰鬥模式\"或\"路人模式\"</strong><br />兼具趣味性與可動性，認真的惡趣味有夠讚🤣🤣<br /><br /><img src=\"/storage/photos/3/Teaser/2021/9/fb001.jpg\" alt=\"\" width=\"100%\" />&nbsp;<br />超ㄎㄧㄤ的新型態變形機器人<br />尺寸：約18cm<br />材質：PVC<br />售價：1,450元<br /><br />⛔️預計2021年8月上市<br />⛔️預購請洽玩具店或網拍賣家<br />⛔️監修中，可能會與圖片有所差異，敬請諒解<br /><br />#東匯玩具 #公仔 #貓神合體 #百獸大帝 <br />#變形貓咪 #貓咪合體 #貓咪機器人 #機器人<br /><br /><img src=\"/storage/photos/3/Teaser/2021/9/comic001.jpg\" alt=\"\" width=\"100%\" /><br /><img src=\"/storage/photos/3/Teaser/2021/9/comic002.jpg\" alt=\"\" width=\"100%\" /><br /><img src=\"/storage/photos/3/Teaser/2021/9/comic003.jpg\" alt=\"\" width=\"100%\" /><br /><img src=\"/storage/photos/3/Teaser/2021/9/fb003.jpg\" alt=\"\" width=\"100%\" /><br /><img src=\"/storage/photos/3/Teaser/2021/9/fb000.jpg\" alt=\"\" width=\"100%\" />",
        "date": "2021-06-10",
        "share_comment_url": "https://toyway.jhong-demo.com.tw/news/reviewProduct?id=47",
        "img": "https://toyway.jhong-demo.com.tw/storage/photos/3/Teaser/2021/9/ROBOTCAT.jpg",
        "sort": 0,
        "state": 1,
        "delete": 0,
        "created_at": "2021-06-10T07:25:39.000000Z",
        "updated_at": "2021-06-23T03:36:13.000000Z"
    },
    {
        "id": 48,
        "category_id": 1,
        "title": "巨大化BLUE摩艾即將登場<br>獻出你們的心(荷)臟(包)！！",
        "content": "<strong><br />布如文創 ✕ 東匯玩具&nbsp;&nbsp;</strong>超人氣BLUE摩艾 ！！巨大化即將襲來！！&nbsp;<br /><br /><br /><br /><br /><img src=\"/storage/photos/3/news/2021/6/0512.jpg\" alt=\"\" width=\"100%\" /><br /><img src=\"/storage/photos/3/news/2021/6/0514.jpg\" alt=\"\" width=\"100%\" /><br /><img src=\"/storage/photos/3/news/2021/6/0513.jpg\" alt=\"\" width=\"100%\" />",
        "date": "2021-05-12",
        "share_comment_url": "https://toyway.jhong-demo.com.tw/news/news?id=48",
        "img": "https://toyway.jhong-demo.com.tw/storage/photos/3/news/2021/6/moai001.jpg",
        "sort": 0,
        "state": 1,
        "delete": 0,
        "created_at": "2021-06-21T03:36:14.000000Z",
        "updated_at": "2021-06-23T03:35:31.000000Z"
    },
    {
        "id": 49,
        "category_id": 1,
        "title": "BLUE摩艾最G～SHOCK的作品😆",
        "content": "改變社會風氣 風靡萬千少女&nbsp;<br />G G G G ♪ &nbsp;BABY BABY BABY ♪<br /><br /><img src=\"/storage/photos/3/news/2021/6/0513.jpg\" alt=\"\" width=\"100%\" />",
        "date": "2021-05-13",
        "share_comment_url": "https://toyway.jhong-demo.com.tw/news/news?id=49",
        "img": "https://toyway.jhong-demo.com.tw/storage/photos/3/news/2021/6/moai003.jpg",
        "sort": 0,
        "state": 1,
        "delete": 1,
        "created_at": "2021-06-21T03:39:44.000000Z",
        "updated_at": "2021-06-23T02:35:30.000000Z"
    },
    {
        "id": 50,
        "category_id": 1,
        "title": "BLUE襲來！！ 獻出你們的心(荷)臟(包)！！",
        "content": "巨大化BLUE摩艾即將登場！！<br /><br /><img src=\"/storage/photos/3/news/2021/6/0514.jpg\" alt=\"\" width=\"100%\" />",
        "date": "2021-05-14",
        "share_comment_url": "https://toyway.jhong-demo.com.tw/news/news?id=50",
        "img": "https://toyway.jhong-demo.com.tw/storage/photos/3/news/2021/6/moai002.jpg",
        "sort": 0,
        "state": 1,
        "delete": 1,
        "created_at": "2021-06-21T03:42:16.000000Z",
        "updated_at": "2021-06-23T02:35:26.000000Z"
    },
    {
        "id": 51,
        "category_id": 1,
        "title": "youtube影片插入<br>範例隱藏文章",
        "content": "<div class=\"embed-responsive embed-responsive-16by9\"><iframe class=\"embed-responsive-item\" src=\"https://www.youtube.com/embed/NPNRHl6ec1E\"></iframe><br /><br /><br /><br /><br />\r\n<p>插入youtube影片</p>\r\n<p>&nbsp;</p>\r\n<ol>\r\n<li>圖文編輯器/檢視/原始碼</li>\r\n</ol>\r\n<p>&nbsp;</p>\r\n<ol start=\"2\">\r\n<li>在原始碼中貼上<br />&lt;div class=\"embed-responsive embed-responsive-16by9\"&gt;<br />&lt;iframe class=\"embed-responsive-item\" src=\"javascript:;\"&gt;&lt;/iframe&gt;<br />&lt;/div&gt;</li>\r\n<li>在youtube找到影片，案分享/嵌入，取得程式碼。</li>\r\n<li>將取得的程式碼中的src=\"https://www/youtube.com/embed/影片代碼\"，取代第2點中，src=\"javascript:;\"。<br />youtube分享嵌入範例：<br />&lt;iframe width=\"560\" height=\"315\" <u>src=\"https://www.youtube.com/embed/NPNRHl6ec1E\"</u> title=\"YouTube video player\" frameborder=\"0\" allow=\"accelerometer; autoplay; clipboard-write; encrypted-media; gyroscope; picture-in-picture\" allowfullscreen&gt;&lt;/iframe&gt;</li>\r\n<li>頁面儲存送出<br />(可在後台文章列表，至頂關閉的文章看範例)</li>\r\n</ol>\r\n<br /><br /><br /></div>",
        "date": "2021-06-21",
        "share_comment_url": "https://toyway.jhong-demo.com.tw/news/news?id=51",
        "img": "https://toyway.jhong-demo.com.tw/storage/photos/shares/img/yt-img.png",
        "sort": 999,
        "state": 0,
        "delete": 0,
        "created_at": "2021-06-21T04:12:51.000000Z",
        "updated_at": "2021-06-21T06:42:08.000000Z"
    },
    {
        "id": 52,
        "category_id": 2,
        "title": "復刻回憶《昭和復古轉盤占卜球》<br>轉個籤詩看看本周運勢吧～🔮",
        "content": "🧙&zwj;♂️東匯占星幫<br />接近六月的尾聲，整體星相結構顯示&nbsp;<br /><span style=\"color: #e67e23;\">『你的生活雖受到某種侷限，但不減你對購買玩具的熱情唷～♪』</span><br /><img src=\"/storage/photos/3/New Arrival/2021/6/TOP.jpg\" alt=\"\" width=\"100%\" /><br />　　　　　<br />推測30歲以上的民眾普遍有見過這東西吧<br />是不是很懷念～～ 喚醒青春的回憶<br />自古以來，占卜命理星盤永遠是大家津津樂道的話題<br />但在那個網路時代尚未普及，除了從報章雜誌獲知星座運勢外<br />就靠這台小小的占卜球了🔮！&nbsp;<br />　　　　\r\n<div class=\"embed-responsive embed-responsive-16by9\"><iframe class=\"embed-responsive-item\" src=\"https://www.youtube.com/embed/facl5S1uMSY\"></iframe></div>\r\n<br />✨本週新品上市，由萬代出品的<strong><span style=\"color: #e67e23;\">《昭和復古轉盤占卜球》</span></strong><br />完美復刻昭和時代蔚為流行的星座運勢籤詩機<br />為當時的喫茶食堂增添約會聚餐的興致與互動性的機器<br />這股風潮後來也席捲台灣，普遍在冰店以及泡沫紅茶店都能見到<br />　　　　　<br />復刻縮小版的占卜球可說是神還原！！<br />模擬投幣、拉桿、轉盤、掉下籤詩等效果&nbsp;<br />連落落長的籤詩都一模一樣🤣🤣<br />甚至外型也是最經典的暗紅與深藍色，另外還有神秘的隱藏款唷<br /><span style=\"color: #e67e23;\">全3種，各400日圓 (每款附3卷籤詩)</span><br />來感受一下不科學年代的美好玩物吧",
        "date": "2021-06-18",
        "share_comment_url": "https://toyway.jhong-demo.com.tw/news/newProduct?id=52",
        "img": "https://toyway.jhong-demo.com.tw/storage/photos/3/New Arrival/2021/6/ball.jpg",
        "sort": 0,
        "state": 1,
        "delete": 0,
        "created_at": "2021-06-21T06:28:48.000000Z",
        "updated_at": "2021-06-21T06:48:18.000000Z"
    },
    {
        "id": 53,
        "category_id": 2,
        "title": "回到過去的電話！？《黑電話的觸感》<br>用\"轉\"的電話！",
        "content": "在這個被戲稱<strong>\"科技冷漠\"</strong>、<strong>\"人手多機\"&nbsp;</strong><br />凡事講求快速效率的時代 &nbsp;<br />撥一通電話甚至不需動手只要開口就能搞定<br />　　　<br />但你知道你爺爺奶奶爸爸媽媽叔叔阿姨們<br /><span style=\"color: #e67e23;\">以前撥電話必須慢慢的\"轉\"嗎！？</span><br />　　　<br /><strong>時代的進化與眼淚</strong><br />EPOCH將昭和時期(1926~1989) 轉盤式電話的靈魂轉盤 <br /><span style=\"color: #e67e23;\">縮小實體化！！&nbsp;&nbsp;帶大家一起回到過去✨☄️<br /></span>　　　\r\n<div class=\"embed-responsive embed-responsive-16by9\"><iframe class=\"embed-responsive-item\" src=\"https://www.youtube.com/embed/8qNRbsbapJE\"></iframe></div>\r\n<br />📣本周新品<strong><span style=\"color: #e67e23;\">《黑電話的觸感》</span></strong>本格正統黑電話&nbsp;<br />模擬轉盤電話的手感與那緩慢的運作轉速及轉盤運轉時的聲響<br />還有中心的白底條文部分是為了備註重要資訊(便利貼的概念)<br /><strong>通通細膩的還原了！！</strong><br />當時的記憶好像也跟著被喚醒了 　　　<br />大人們可以回味一下往日情懷<br />年輕世代感受一下老派的浪漫<br /><span style=\"color: #e67e23;\">打電話也可以很有儀式感唷～</span><br />　　　<br /><img src=\"/storage/photos/3/New Arrival/2020/3/2020030302.jpg\" alt=\"\" width=\"100%\" /><br />👉 <span style=\"color: #e67e23;\">全4種，各300日圓<br /><br /><br /></span><strong>東匯小學堂　　</strong><br />轉盤式電話的原理是以「脈衝信號」傳送<br />撥號時數字越大，送出的脈波電流越多，轉盤歸位的時間就越長<br />反之數字越小，歸位越快<br />交換機藉此收到不同長度的電流，得以分辨號碼",
        "date": "2020-03-03",
        "share_comment_url": "https://toyway.jhong-demo.com.tw/news/newProduct?id=53",
        "img": "https://toyway.jhong-demo.com.tw/storage/photos/3/New Arrival/2020/3/2020030301.jpg",
        "sort": 0,
        "state": 1,
        "delete": 0,
        "created_at": "2021-06-21T07:01:52.000000Z",
        "updated_at": "2021-06-21T07:01:52.000000Z"
    },
    {
        "id": 54,
        "category_id": 2,
        "title": "五、六年級的浪漫！マジンガーZ<br>《INTEGATE MODEL 魔神Z 造型轉蛋》<br>巨大襲來！！",
        "content": "<span style=\"font-size: 14pt; color: #e03e2d;\"><strong>test</strong></span><br /><span style=\"color: #f1c40f;\"><em>test</em></span><br />test<br />test<br />test<br />test<br /><a title=\"test\" href=\"/news/newProduct?id=55\" target=\"_blank\" rel=\"noopener\">test</a><br />test",
        "date": "2020-06-09",
        "share_comment_url": "https://toyway.jhong-demo.com.tw/news/newProduct?id=54",
        "img": "https://toyway.jhong-demo.com.tw/storage/photos/1/663060.jpg",
        "sort": 0,
        "state": 1,
        "delete": 1,
        "created_at": "2021-06-21T07:16:22.000000Z",
        "updated_at": "2021-06-22T03:43:11.000000Z"
    },
    {
        "id": 55,
        "category_id": 2,
        "title": "五、六年級的浪漫！マジンガーZ<br>《INTEGATE MODEL 魔神Z 造型轉蛋》<br>巨大襲來！！",
        "content": "<strong>大孩子的回憶&nbsp; 男人的羅曼史</strong><br /><strong>「指揮艇～紙盒！！」 回憶無敵再進化！</strong><br /><strong><span style=\"color: #ba372a;\">《INTEGATE MODEL 魔神Z 造型轉蛋》<br /><img src=\"/storage/photos/3/New Arrival/2020/3/20200609.jpg\" alt=\"\" width=\"100%\" /></span></strong><br />萬代展現環保扭蛋先驅姿態<br />以全新開發的的骨架構造，打造史上最巨大扭蛋！<br />整顆球體皆為組裝零件<br />　　　\r\n<div class=\"embed-responsive embed-responsive-16by9\"><iframe class=\"embed-responsive-item\" src=\"https://www.youtube.com/embed/bhFhAoXkV6U\"></iframe></div>\r\n<br />👉共3款，各500日圓<br />1.外部機身&nbsp; &nbsp;2.內部結構&nbsp; &nbsp;3.迴旋指揮艇<br /><span style=\"color: #ba372a;\">3款可獨立擺飾，也可合體組合成約20公分超巨大的魔神Z！！</span><br />還可發揮創意自行拆解改造<br />精密細膩的骨架工藝，超乎想像的組裝結構<br />喜歡組裝模型的朋友會組得很興奮唷<br />令人讚嘆的塗裝細節，指揮艇的座艙還可以開啟！！<br />整個熱血沸騰啦～～～🔥🔥🔥<br />完全超越一般認知的扭蛋<br />推薦給所有歷久不衰的鐵金剛魂<br />魔神 GO！！<br /><img src=\"/storage/photos/3/New Arrival/2020/3/2020060903.jpg\" alt=\"\" width=\"100%\" /><br /><br /><a href=\"https://gashapon.jp/integratemodel/build/detail_004.php\">官方說明書</a>",
        "date": "2020-06-09",
        "share_comment_url": "https://toyway.jhong-demo.com.tw/news/newProduct?id=55",
        "img": "https://toyway.jhong-demo.com.tw/storage/photos/3/New Arrival/2020/3/2020060902.jpg",
        "sort": 0,
        "state": 1,
        "delete": 0,
        "created_at": "2021-06-21T07:27:11.000000Z",
        "updated_at": "2021-06-22T06:00:14.000000Z"
    },
    {
        "id": 56,
        "category_id": 2,
        "title": "我就胖！日本扭蛋品牌 ✕ 台灣原型師<br>《 RBEN STUDIO 胖胖動物公仔 》年度必蒐款！",
        "content": "\"杯緣子\"的推手-日本知名扭蛋品牌「奇譚俱樂部」<br /><strong><span style=\"color: #e67e23;\">首度與台灣原型師 RBEN 阿班 (黃柏翔) 聯名合作</span></strong><br />推出奇譚史上最巨大！最逼真！最具份量感的作品<br /><img src=\"/storage/photos/3/New Arrival/2020/3/2020091301.jpg\" alt=\"\" width=\"100%\" /><br /><strong><span style=\"color: #e67e23;\">《RBEN STUDIO胖胖動物公仔》</span></strong><br />\r\n<div class=\"embed-responsive embed-responsive-16by9\"><iframe class=\"embed-responsive-item\" src=\"https://www.youtube.com/embed/0bkVBxvrDiQ\"></iframe></div>\r\n<br />📣全4種，各500日圓<br />大象、駝鹿、白熊、鱷魚<br />日本一上市迅速造成各地斷貨<br />口碑持續在網路社群延燒中&nbsp;<br />高品質的細膩做工讓大家看得嘆為觀止<br /><img src=\"/storage/photos/3/New Arrival/2020/3/2020091304.jpg\" alt=\"\" width=\"100%\" /><br /><img src=\"/storage/photos/3/New Arrival/2020/3/2020091302.jpg\" alt=\"\" width=\"100%\" /><br /><img src=\"/storage/photos/3/New Arrival/2020/3/2020091305.jpg\" alt=\"\" width=\"100%\" /><br />\r\n<div class=\"embed-responsive embed-responsive-16by9\">&nbsp;</div>",
        "date": "2020-09-13",
        "share_comment_url": "https://toyway.jhong-demo.com.tw/news/newProduct?id=56",
        "img": "https://toyway.jhong-demo.com.tw/storage/photos/3/New Arrival/2020/3/2020091303.jpg",
        "sort": 0,
        "state": 1,
        "delete": 0,
        "created_at": "2021-06-21T07:59:26.000000Z",
        "updated_at": "2021-06-21T08:03:10.000000Z"
    },
    {
        "id": 57,
        "category_id": 2,
        "title": "席捲醫護界的小玩具！仿實體傻瓜電擊器<br>《AED迷你模型》日本醫療器材商監修製作<br>寓教於樂，大家學起來！",
        "content": "📣萬代最新推出的<strong><span style=\"color: #e67e23;\">《AED迷你模型》</span></strong>全4種，各300日圓<br />是由日本醫療器材生產商「日本光電」監修製作<br /><strong>仿實體AED規格縮小扭蛋化，忠實還原外型與零件組成&nbsp;<br /><br /><br /><br /><img src=\"/storage/photos/3/New Arrival/2020/9/2020091307.jpg\" alt=\"\" width=\"100%\" /></strong><br /><br /><br />為了讓一般沒有機會接觸AED的大眾<br /><span style=\"color: #e67e23;\">可以藉由扭蛋玩具了解AED的內容與結構和操作方法<br /><br /><br /><br /></span><img src=\"/storage/photos/3/New Arrival/2020/9/2020091303.jpg\" alt=\"\" width=\"100%\" /><br /><br /><br /><br />可開蓋、抽出電擊片、切換模式、按電擊鈕<br />收錄了2015、2019、2020年各版本的AED，邊玩邊學習<br /><br />\r\n<div class=\"embed-responsive embed-responsive-16by9\"><iframe class=\"embed-responsive-item\" src=\"https://www.youtube.com/embed/lfDaCX2Ktwk\"></iframe><br /><br /></div>\r\n鼓勵大眾在必要時刻搶救患者<br />降低心理的使用障礙，不著急、不慌亂的使用AED<br />(AED會自動偵測，所以不用害怕電錯)<br />(相關法規上也有免責之規定)<br /><strong>這款極富社會意義、寓教於樂的寫實AED，救護控絕對必蒐！！<br /><br /><br /><img src=\"/storage/photos/3/New Arrival/2020/9/2020091308.jpg\" alt=\"\" width=\"100%\" /><br /><br /><br /><br /></strong>",
        "date": "2020-09-22",
        "share_comment_url": "https://toyway.jhong-demo.com.tw/news/newProduct?id=57",
        "img": "https://toyway.jhong-demo.com.tw/storage/photos/3/New Arrival/2020/9/2020091301.jpg",
        "sort": 0,
        "state": 1,
        "delete": 0,
        "created_at": "2021-06-21T08:28:03.000000Z",
        "updated_at": "2021-06-21T08:33:04.000000Z"
    },
    {
        "id": 58,
        "category_id": 2,
        "title": "萬聖驚魂夜！不要睡！起來嗨啦～ <br>《發條爬行殭屍》髒比爬行大賽！？",
        "content": "萬聖節快到了，活的死的都爬起來啦啊啊～～<br />T-ARTS<strong><span style=\"color: #e67e23;\">《發條爬行殭屍》</span></strong>全4種，各300日圓<br /><strong>GEORGE、TOM、JUDITH、ASIA<br /><br /></strong>\r\n<div class=\"embed-responsive embed-responsive-16by9\"><iframe class=\"embed-responsive-item\" src=\"https://www.youtube.com/embed/UEQHfZdxJPk\"></iframe></div>\r\n<br />頭、手、上下半身組合後可達約11公分&nbsp;<span style=\"color: #e67e23;\"><strong>超大尺寸！！</strong></span><br />模擬喪屍緩慢爬行的速度超有感～<span style=\"font-size: 8pt;\"> (小編個人很愛這套)</span><br /><br /><img src=\"/storage/photos/3/New Arrival/2020/10/20201023.jpg\" alt=\"\" width=\"100%\" />　　 &nbsp;&nbsp;<br />有趣的是喜歡喪屍電影的朋友是否覺得眼熟<br />這組商品儼然向經典喪屍電影<br />《活死人之夜》（Night of the Living Dead）致敬<br />每款角色的造型與命名也和喪屍電影有所關連<br />最容易辯識的藍衣金髮女JUDITH也就是劇中女主角芭芭拉<br />還有白髮大叔GEORGE<br />也就是導演\"喪屍之父\"喬治羅梅羅（George A. Romero）<br />極具巧思的設定會讓影迷很驚喜吧～",
        "date": "2020-10-23",
        "share_comment_url": "https://toyway.jhong-demo.com.tw/news/newProduct?id=58",
        "img": "https://toyway.jhong-demo.com.tw/storage/photos/3/New Arrival/2020/10/2020102303.jpg",
        "sort": 0,
        "state": 1,
        "delete": 0,
        "created_at": "2021-06-21T08:47:55.000000Z",
        "updated_at": "2021-06-21T08:47:55.000000Z"
    },
    {
        "id": 59,
        "category_id": 3,
        "title": "「白爛貓」首款盒玩《白爛貓盒裝玩具-第一彈》<br>搭配經典語錄，保證讓你河河河😆",
        "content": "全民偶像！貼圖霸主「白爛貓」再度於東匯玩具回歸啦～～<br />繼扭蛋、限量軟膠公仔後，<strong>首度推出精緻盒玩版爛爛公仔</strong>！<br />✨<strong><span style=\"color: #e67e23;\">《 白爛貓盒裝玩具-第一彈 》</span></strong>✨<br /><br /><img src=\"/storage/photos/3/New Arrival/2021/4/004.jpg\" alt=\"\" width=\"100%\" /><br /><br /><br />將超人氣貼圖實體化，搭配經典語錄<br />讓你時時刻刻感受正宗白爛的魅力！詼諧得讓你<strong>河河河</strong>😆<br /><br />👉<span style=\"color: #e67e23;\">全5款 + 1款隱藏版 #各附爛爛經典語錄台座</span><br />⚫星光爛 (附：麥克風)<br />⚫鴨力爛 (附：\"鴨力\")<br />⚫鹹魚爛 (附：椅子)<br />⚫搬魚爛<br />⚫苦命爛&nbsp;<br />⚫隱藏版<br /><br /><img src=\"/storage/photos/3/New Arrival/2021/4/002.jpg\" alt=\"\" width=\"100%\" /><br /><br />公仔尺寸約60～90mm，超越一般盒玩的大尺寸與紮實份量感！<br /><span style=\"color: #e67e23;\"><strong>【隨機單抽】</strong>每款保密包裝，單盒價350元 (有機會抽中隱藏版唷)</span><br /><span style=\"color: #e67e23;\"><strong>【一套】</strong> 共6盒 &nbsp;(款式不重複，包含隱藏版)<br /></span><br /><br />預計8月上市，正版授權，東匯玩具獨家經銷&nbsp;<br />⛔️預購請洽全台實體玩具店或網拍賣家<br />⛔️監修中，可能與圖片有所差異，敬請諒解<br />粉絲們可以去問爆你喜愛的玩具店家了<br /><img src=\"/storage/photos/3/New Arrival/2021/4/005.jpg\" alt=\"\" width=\"100%\" />",
        "date": "2021-04-16",
        "share_comment_url": "https://toyway.jhong-demo.com.tw/news/reviewProduct?id=59",
        "img": "https://toyway.jhong-demo.com.tw/storage/photos/3/New Arrival/2021/4/001.jpg",
        "sort": 0,
        "state": 1,
        "delete": 0,
        "created_at": "2021-06-22T06:28:57.000000Z",
        "updated_at": "2021-06-22T06:28:57.000000Z"
    },
    {
        "id": 60,
        "category_id": 1,
        "title": "Fluffy House ✕ 東匯玩具《白雲寶寶環保扭蛋》<br>大尺寸環保扭蛋首度登場，軟萌療癒魅力全開！",
        "content": "<div class=\"kvgmc6g5 cxmmr5t8 oygrvhab hcukyx3x c1et5uql ii04i59q\">&nbsp;</div>\r\n<div class=\"o9v6fnle cxmmr5t8 oygrvhab hcukyx3x c1et5uql ii04i59q\">\r\n<div dir=\"auto\"><strong><span style=\"color: #3598db;\">「你看過一臉蓬鬆感像棉花糖的白雲先生嗎？」</span></strong></div>\r\n<div dir=\"auto\"><strong><span style=\"color: #3598db;\">「如果你沒看過，現在讓你看看」</span></strong><br /><br /></div>\r\n</div>\r\n<div class=\"o9v6fnle cxmmr5t8 oygrvhab hcukyx3x c1et5uql ii04i59q\">\r\n<div dir=\"auto\">東匯玩具繼《小偷狗軍團》與《白爛貓變裝公仔》之後</div>\r\n<div dir=\"auto\"><strong><span style=\"color: #3598db;\">這次與「Fluffy House」合作推出<span style=\"font-size: 12pt;\">《白雲寶寶環保扭蛋》</span></span></strong></div>\r\n<div dir=\"auto\"><strong>這也是白雲家族首次扭蛋化喔～<span class=\"pq6dq46d tbxw36s4 knj5qynh kvgmc6g5 ditlmg2l oygrvhab nvdbi5me sf5mxxl7 gl3lb2sf hhz5lgdu\"><img src=\"https://static.xx.fbcdn.net/images/emoji.php/v9/tf4/1/16/2728.png\" alt=\"✨\" width=\"16\" height=\"16\" /></span></strong></div>\r\n<div dir=\"auto\"><strong>而且是大尺寸環保扭蛋約8.4公分<span class=\"pq6dq46d tbxw36s4 knj5qynh kvgmc6g5 ditlmg2l oygrvhab nvdbi5me sf5mxxl7 gl3lb2sf hhz5lgdu\"><img src=\"https://static.xx.fbcdn.net/images/emoji.php/v9/t58/1/16/1f929.png\" alt=\"🤩\" width=\"16\" height=\"16\" /><br /><br /></span></strong></div>\r\n</div>\r\n<div class=\"o9v6fnle cxmmr5t8 oygrvhab hcukyx3x c1et5uql ii04i59q\">\r\n<div dir=\"auto\">「Fluffy House」2007年創立的香港設計團隊</div>\r\n<div dir=\"auto\">以簡約線條，童趣造型搭配活潑配色</div>\r\n<div dir=\"auto\">將天氣系列擬人化的「白雲先生家族」</div>\r\n<div dir=\"auto\">傳達對於生活樸實的慢活態度</div>\r\n<div dir=\"auto\">提醒現代人在忙碌的日常也別失去作夢的想像力</div>\r\n<div dir=\"auto\">溫馨可愛的療癒風格在世界各地玩具圈</div>\r\n<div dir=\"auto\">也擁有許多忠實愛好者</div>\r\n</div>\r\n<div class=\"o9v6fnle cxmmr5t8 oygrvhab hcukyx3x c1et5uql ii04i59q\">\r\n<div dir=\"auto\">從平面插畫到實體公仔，甚至推出期間限定咖啡店</div>\r\n<div dir=\"auto\">跨足全世界與各品牌合作</div>\r\n<div dir=\"auto\">如：英國潮流玩具-MOMIJI、德國藝術品牌-COARSE</div>\r\n<div dir=\"auto\">日本知名設計師-高木綾子(UAMOU )</div>\r\n<div dir=\"auto\">日本知名藝術家-大石曉規(Akinori Oishi)</div>\r\n<div dir=\"auto\">聯名的限量玩具在市場上的身價水漲船高</div>\r\n<div dir=\"auto\">更橫跨手機APP、保養品牌、寢飾品牌...等等</div>\r\n<div dir=\"auto\">旗下還有另一知名系列《我家貓》</div>\r\n<div dir=\"auto\">軟萌的療癒魅力活躍於全世界<br /><br /></div>\r\n</div>\r\n<div class=\"o9v6fnle cxmmr5t8 oygrvhab hcukyx3x c1et5uql ii04i59q\">\r\n<div dir=\"auto\"><span style=\"color: #3598db;\"><strong>預計2020年4月上市的《白雲寶寶環保扭蛋》　　</strong></span></div>\r\n<div dir=\"auto\"><span class=\"pq6dq46d tbxw36s4 knj5qynh kvgmc6g5 ditlmg2l oygrvhab nvdbi5me sf5mxxl7 gl3lb2sf hhz5lgdu\"><img src=\"https://static.xx.fbcdn.net/images/emoji.php/v9/t51/1/16/1f449.png\" alt=\"👉\" width=\"16\" height=\"16\" /></span> <strong>共5種，各500日圓</strong></div>\r\n<div dir=\"auto\">白雲寶寶、彩虹寶寶、灰雲寶寶</div>\r\n<div dir=\"auto\">太陽寶寶、雨滴寶寶</div>\r\n</div>\r\n<div class=\"o9v6fnle cxmmr5t8 oygrvhab hcukyx3x c1et5uql ii04i59q\">\r\n<div dir=\"auto\">每一款都超可愛～不管扭到哪一種天氣都很殼以！！</div>\r\n<div dir=\"auto\">完全沒有雷的一組 (確實沒有雷寶寶啊哈哈<span class=\"pq6dq46d tbxw36s4 knj5qynh kvgmc6g5 ditlmg2l oygrvhab nvdbi5me sf5mxxl7 gl3lb2sf hhz5lgdu\"><img src=\"https://static.xx.fbcdn.net/images/emoji.php/v9/td0/1/16/1f602.png\" alt=\"😂\" width=\"16\" height=\"16\" /></span>)</div>\r\n<div dir=\"auto\">超越市面環保扭蛋的做工水準</div>\r\n<div dir=\"auto\">用親民的價格，收藏設計師玩具</div>\r\n</div>\r\n<div class=\"o9v6fnle cxmmr5t8 oygrvhab hcukyx3x c1et5uql ii04i59q\">\r\n<div dir=\"auto\"><strong><span style=\"color: #3598db;\">「無論任何天氣，有白雲家族陪伴的每一天，都很美好」<br /><br /></span></strong></div>\r\n</div>\r\n<div class=\"o9v6fnle cxmmr5t8 oygrvhab hcukyx3x c1et5uql ii04i59q\">\r\n<div dir=\"auto\"><span class=\"pq6dq46d tbxw36s4 knj5qynh kvgmc6g5 ditlmg2l oygrvhab nvdbi5me sf5mxxl7 gl3lb2sf hhz5lgdu\"><img src=\"https://static.xx.fbcdn.net/images/emoji.php/v9/tbd/1/16/26d4.png\" alt=\"⛔️\" width=\"16\" height=\"16\" /></span>預購請洽詢所在地零售商或線上商店</div>\r\n<div dir=\"auto\"><span class=\"pq6dq46d tbxw36s4 knj5qynh kvgmc6g5 ditlmg2l oygrvhab nvdbi5me sf5mxxl7 gl3lb2sf hhz5lgdu\"><img src=\"https://static.xx.fbcdn.net/images/emoji.php/v9/tbd/1/16/26d4.png\" alt=\"⛔️\" width=\"16\" height=\"16\" /></span>預計2020年 4月上市</div>\r\n<div dir=\"auto\"><span class=\"pq6dq46d tbxw36s4 knj5qynh kvgmc6g5 ditlmg2l oygrvhab nvdbi5me sf5mxxl7 gl3lb2sf hhz5lgdu\"><img src=\"https://static.xx.fbcdn.net/images/emoji.php/v9/tbd/1/16/26d4.png\" alt=\"⛔️\" width=\"16\" height=\"16\" /></span>預購商品目監修中，可能會與圖片有所差異，敬請諒解<br /><br /></div>\r\n</div>\r\n<div class=\"o9v6fnle cxmmr5t8 oygrvhab hcukyx3x c1et5uql ii04i59q\">\r\n<div dir=\"auto\"><a href=\"https://www.fluffyhouse.com/\">Fluffy House 官方網站</a></div>\r\n<div dir=\"auto\"><a href=\"https://www.instagram.com/fluffyhouse_official/\">Fluffy House 官方IG</a><br /><br /></div>\r\n</div>",
        "date": "2020-01-09",
        "share_comment_url": "https://toyway.jhong-demo.com.tw/news/reviewProduct?id=60",
        "img": "https://toyway.jhong-demo.com.tw/storage/photos/3/Teaser/2020/1/000.jpg",
        "sort": 0,
        "state": 1,
        "delete": 0,
        "created_at": "2021-06-22T06:55:45.000000Z",
        "updated_at": "2021-06-22T07:01:16.000000Z"
    },
    {
        "id": 61,
        "category_id": 2,
        "title": "不想努力的時刻，白雲寶寶的懷抱歡迎你～<br>Fluffy House《白雲寶寶環保扭蛋》療癒上市",
        "content": "早安午安晚安～ 今天的你，好嗎？&nbsp;<br />生活的無力、工作的疲憊、未來的迷茫、人生的倦怠<br />所有的烏煙瘴氣，又讓你想逃去哪裡呢？<br /><br />歡迎你逃進白雲寶寶的溫柔裡 🤗<br /><span style=\"color: #3598db;\">在所有不想努力的時刻，徜徉在白雲軟萌的懷抱，慵懶一下 ～</span><br />(逃避可恥但很有用😆<br /><br />\r\n<div class=\"embed-responsive embed-responsive-16by9\"><iframe class=\"embed-responsive-item\" src=\"https://www.youtube.com/embed/XTSvzy5umHE\"></iframe></div>\r\n<img src=\"/storage/photos/3/New Arrival/2020/9/001.JPG\" alt=\"\" width=\"100%\" /> 東匯玩具繼《小偷狗軍團》與《白爛貓變裝公仔》之後<br /><span style=\"color: #3598db;\"><strong>初秋最柔軟的新作《白雲寶寶環保扭蛋》</strong></span><br />聯名香港知名設計團隊「Fluffy House」<br />將旗下最招牌的白雲家族系列，首次扭蛋化<br /><strong>大尺寸環保扭蛋，約8.4公分<br /><img src=\"/storage/photos/3/New Arrival/2020/9/002.JPG\" alt=\"\" width=\"100%\" /><br /></strong><br /><br />👉 <strong>共5種，各500日圓</strong><br />白雲寶寶、彩虹寶寶、灰雲寶寶、太陽寶寶、雨滴寶寶<br />擬人化的天氣寶寶們，搭配你的各種心情<br /><br /><br /><img src=\"/storage/photos/3/New Arrival/2020/9/DSC01040.JPG\" alt=\"\" width=\"100%\" /><br /><br />2007年創立的香港設計團隊「Fluffy House」<br />以簡約線條，童趣造型搭配活潑色彩為創作特色<br />「白雲先生家族」傳達生活樸實的慢活態度<br />提醒現代人在忙碌的日常也別失去作夢的想像力<br />從平面插畫到實體公仔，甚至推出期間限定咖啡店<br />創作更橫跨手機APP、保養品牌、寢飾品牌...等等<br />與各國藝術家合作的聯名作品也具有相當的蒐藏價值<br />溫馨可愛的療癒風格在全球擁有許多忠實愛好者<br /><br /><strong>首款扭蛋作品讓大家可以輕鬆入手收藏設計師玩具</strong><br />寶寶們圓潤的外型與無害的表情，散發別具安心感性的氛圍<br /><span style=\"color: #3598db;\">不管今天是什麼天氣、什麼心情，都有白雲寶寶陪伴你</span>🥰",
        "date": "2020-09-24",
        "share_comment_url": "https://toyway.jhong-demo.com.tw/news/newProduct?id=61",
        "img": "https://toyway.jhong-demo.com.tw/storage/photos/3/New Arrival/2020/9/000.jpg",
        "sort": 0,
        "state": 1,
        "delete": 0,
        "created_at": "2021-06-22T07:17:28.000000Z",
        "updated_at": "2021-06-22T07:46:47.000000Z"
    },
    {
        "id": 62,
        "category_id": 1,
        "title": "1111",
        "content": "<div class=\"embed-responsive embed-responsive-16by9\"><iframe class=\"embed-responsive-item\" src=\"https://www.youtube.com/embed/XTSvzy5umHE\"></iframe></div>",
        "date": "2021-06-22",
        "share_comment_url": "https://toyway.jhong-demo.com.tw/news/news?id=62",
        "img": "https://toyway.jhong-demo.com.tw/storage/photos/3/New Arrival/2020/9/000.jpg",
        "sort": 0,
        "state": 1,
        "delete": 1,
        "created_at": "2021-06-22T07:38:11.000000Z",
        "updated_at": "2021-06-22T07:47:36.000000Z"
    },
    {
        "id": 63,
        "category_id": 1,
        "title": "這是一趟剁手行程....<br>小編出任務💨「2021臺灣文博會」<br>集結了眾多知名圖像創作IP的「萬神殿」",
        "content": "<span style=\"color: #ef31ad;\">由文化部主辦、台灣設計研究院執行的<strong>「2021臺灣文博會」</strong></span><br /><strong>是國內最具規模及代表性的文創博覽會</strong><br />今年主辦策畫力全開，概念豐富的分為3大主題、3個展區　　　　　　<br /><span style=\"color: #ef31ad;\">✸</span>花博公園-爭艷館：萬神殿 　　　　<br /><span style=\"color: #ef31ad;\">✸</span>松山文創園區：匯聚宮　　　<br /><span style=\"color: #ef31ad;\">✸</span>華山1914文創園區：數據廟<br /><br />昨日小編參觀了<span style=\"color: #ef31ad;\">花博-萬神殿&nbsp;</span><br /><strong>以圖文創作、卡通角色、週邊為主，將IP比喻為多神信仰的世界<br /></strong>集結了70家授權品牌知名圖像IP，<strong>黃阿瑪的後宮生活</strong><br />貓貓蟲咖波、三麗鷗家族、Line Friends<br />以及風靡社群的圖文插畫創作者們&nbsp;<br />油頭二世、陳森田、喂，wei、怪奇事務所、梅康米<br />當然也包含了獨立品牌的原創設計師與藝術家們&nbsp;<br /><strong>路遙圓創</strong>、小犬工作室、<strong>Kingjun</strong>、<strong>牛奶玩具公司&nbsp;<br /><img src=\"/storage/photos/3/news/2021/4/013.JPG\" alt=\"\" width=\"100%\" /><br /></strong><img src=\"/storage/photos/3/news/2021/4/012.JPG\" alt=\"\" width=\"100%\" /><br /><br />還能搶先欣賞路遙未發表的新品<br />以及目前預購中的<strong> 生態烏龜 🐢</strong><br />實體超級細膩！！<br /><br /><img src=\"/storage/photos/3/news/2021/4/003.JPG\" alt=\"\" width=\"100%\" /><br /><br /><br />而且現場還設置了<span style=\"color: #ef31ad;\"><strong>「文博限定扭蛋區」</strong></span>(限定商品我還不扭爆！！<br /><img src=\"/storage/photos/3/news/2021/4/024.JPG\" alt=\"\" width=\"100%\" /><br /><br /><strong>真心覺得太好玩、太精(好)采(買)啦啊啊啊～～～</strong>🔥🔥🔥<br />說再多都不如你親自走一趟，來去感受台灣文創的能量啦！<br /><strong>答應我，錢錢要帶足。</strong> (貼心提示：部分攤位有支援Line Pay唷😌)<br />詳細展場開放時間與資訊，請查看 #臺灣文博會 官網或粉專<br /><br />#這是一篇勸敗文? #買都買 #2021台灣文博會 #萬神殿&nbsp;<br />#文博會 #文博 #數據廟 #文創 #圓山 #扭蛋 #轉蛋",
        "date": "2021-04-22",
        "share_comment_url": "https://toyway.jhong-demo.com.tw/news/news?id=63",
        "img": "https://toyway.jhong-demo.com.tw/storage/photos/3/news/2021/4/000.jpg",
        "sort": 0,
        "state": 1,
        "delete": 0,
        "created_at": "2021-06-22T08:17:24.000000Z",
        "updated_at": "2021-06-22T08:17:24.000000Z"
    },
    {
        "id": 64,
        "category_id": 3,
        "title": "夏季電費暫緩！ 🐧 \\ 好耶 /<br>🐧超嗨噠！10月《萬歲企鵝公仔》",
        "content": "<div class=\"\" data-block=\"true\" data-editor=\"ee4j0\" data-offset-key=\"13sre-0-0\">不論是發票對中了、水庫有水了、有免運！</div>\r\n<div class=\"\" data-block=\"true\" data-editor=\"ee4j0\" data-offset-key=\"3iunm-0-0\">\r\n<div class=\"_1mf _1mj\" data-offset-key=\"3iunm-0-0\"><span data-offset-key=\"3iunm-0-0\">買一送一、吃到美食、她按我讚、瘦了！</span></div>\r\n</div>\r\n<div class=\"\" data-block=\"true\" data-editor=\"ee4j0\" data-offset-key=\"76tt2-0-0\">\r\n<div class=\"_1mf _1mj\" data-offset-key=\"76tt2-0-0\"><span data-offset-key=\"76tt2-0-0\">日常中再微小的事都可以歡呼為自己打氣一下</span></div>\r\n</div>\r\n<div class=\"\" data-block=\"true\" data-editor=\"ee4j0\" data-offset-key=\"1qcho-0-0\">\r\n<div class=\"_1mf _1mj\" data-offset-key=\"1qcho-0-0\"><span data-offset-key=\"1qcho-0-0\"><span data-offset-key=\"1qcho-0-0\"><strong>套句老梗「這世界很煩，但你要很可愛」(⁎⁍̴̛ᴗ⁍̴̛⁎)</strong><br /><img src=\"/storage/photos/3/Teaser/2021/10/VIVA002.jpg\" alt=\"\" width=\"100%\" /><br /></span></span>\r\n<div class=\"\" data-block=\"true\" data-editor=\"ee4j0\" data-offset-key=\"13sre-0-0\">\r\n<div class=\"_1mf _1mj\" data-offset-key=\"13sre-0-0\"><span data-offset-key=\"13sre-0-0\"><br /><strong><span style=\"color: #3598db;\">《</span></strong></span><strong><span class=\"_5zk7\" style=\"color: #3598db;\" spellcheck=\"false\" data-offset-key=\"13sre-1-0\">萬歲企鵝公仔</span></strong><span data-offset-key=\"13sre-2-0\"><strong><span style=\"color: #3598db;\">》</span></strong><span class=\"_3gl1 _5zz4\" data-offset-key=\"7jf4l-0-0\"><span class=\"_ncl\">🐧&nbsp; </span></span></span>全5種，各300日圓</div>\r\n</div>\r\n　　　<br /><img src=\"/storage/photos/3/Teaser/2021/10/VIVA001.jpg\" alt=\"\" width=\"100%\" /></div>\r\n</div>\r\n<div class=\"\" data-block=\"true\" data-editor=\"ee4j0\" data-offset-key=\"4le6o-0-0\">\r\n<div class=\"_1mf _1mj\" data-offset-key=\"4le6o-0-0\"><span class=\"_3gl1 _5zz4\" data-offset-key=\"4le6o-0-0\"><span class=\"_ncl\"><span data-offset-key=\"4le6o-0-0\">⛔️</span></span></span><span data-offset-key=\"4le6o-1-0\">預計2021年10月上市</span></div>\r\n</div>\r\n<div class=\"\" data-block=\"true\" data-editor=\"ee4j0\" data-offset-key=\"2o5mk-0-0\">\r\n<div class=\"_1mf _1mj\" data-offset-key=\"2o5mk-0-0\"><span class=\"_3gl1 _5zz4\" data-offset-key=\"2o5mk-0-0\"><span class=\"_ncl\"><span data-offset-key=\"2o5mk-0-0\">⛔️</span></span></span><span data-offset-key=\"2o5mk-1-0\">預購請洽全台玩具店或網拍賣場</span></div>\r\n</div>\r\n<div class=\"\" data-block=\"true\" data-editor=\"ee4j0\" data-offset-key=\"cu11a-0-0\">\r\n<div class=\"_1mf _1mj\" data-offset-key=\"cu11a-0-0\"><span class=\"_3gl1 _5zz4\" data-offset-key=\"cu11a-0-0\"><span class=\"_ncl\"><span data-offset-key=\"cu11a-0-0\">⛔️</span></span></span><span data-offset-key=\"cu11a-1-0\">監修中，可能會與圖片有所差異，敬請諒解　　　</span></div>\r\n</div>\r\n<div class=\"\" data-block=\"true\" data-editor=\"ee4j0\" data-offset-key=\"6ssr4-0-0\">\r\n<div class=\"_1mf _1mj\" data-offset-key=\"6ssr4-0-0\"><span data-offset-key=\"6ssr4-0-0\">　　　　　　　　　　　　　　　　　　　　　</span></div>\r\n</div>\r\n<div class=\"\" data-block=\"true\" data-editor=\"ee4j0\" data-offset-key=\"9752d-0-0\">\r\n<div class=\"_1mf _1mj\" data-offset-key=\"9752d-0-0\"><span class=\"_5zk7\" spellcheck=\"false\" data-offset-key=\"9752d-0-0\"><span data-offset-key=\"9752d-0-0\">#YELL #バンザーイ</span></span> <span class=\"_5zk7\" spellcheck=\"false\" data-offset-key=\"9752d-2-0\"><span data-offset-key=\"9752d-2-0\">#企鵝</span></span> <span class=\"_5zk7\" spellcheck=\"false\" data-offset-key=\"9752d-4-0\"><span data-offset-key=\"9752d-4-0\">#歡呼企鵝</span></span> <span class=\"_5zk7\" spellcheck=\"false\" data-offset-key=\"9752d-6-0\"><span data-offset-key=\"9752d-6-0\">#萬歲企鵝</span></span><span data-offset-key=\"9752d-7-0\"> 　　　</span></div>\r\n</div>\r\n<div class=\"\" data-block=\"true\" data-editor=\"ee4j0\" data-offset-key=\"5jb4g-0-0\">\r\n<div class=\"_1mf _1mj\" data-offset-key=\"5jb4g-0-0\"><span class=\"_5zk7\" spellcheck=\"false\" data-offset-key=\"5jb4g-0-0\"><span data-offset-key=\"5jb4g-0-0\">#東匯玩具</span></span> <span class=\"_5zk7\" spellcheck=\"false\" data-offset-key=\"5jb4g-2-0\"><span data-offset-key=\"5jb4g-2-0\">#扭蛋</span></span> <span class=\"_5zk7\" spellcheck=\"false\" data-offset-key=\"5jb4g-4-0\"><span data-offset-key=\"5jb4g-4-0\">#轉蛋</span></span> <span class=\"_5zk7\" spellcheck=\"false\" data-offset-key=\"5jb4g-6-0\"><span data-offset-key=\"5jb4g-6-0\">#カプセルトイ</span></span> <span class=\"_5zk7\" spellcheck=\"false\" data-offset-key=\"5jb4g-8-0\"><span data-offset-key=\"5jb4g-8-0\">#capsuletoy<br /><br /><br /></span></span></div>\r\n</div>",
        "date": "2021-06-25",
        "share_comment_url": "https://toyway.jhong-demo.com.tw/news/reviewProduct?id=64",
        "img": "https://toyway.jhong-demo.com.tw/storage/photos/3/Teaser/2021/10/VIVA001.jpg",
        "sort": 0,
        "state": 1,
        "delete": 0,
        "created_at": "2021-06-25T09:04:07.000000Z",
        "updated_at": "2021-06-30T09:19:28.000000Z"
    },
    {
        "id": 65,
        "category_id": 3,
        "title": "軟萌的棉花糖小海豹上桌囉🤤<br>10月「動物愛好系列-模擬食物的動物們」",
        "content": "創作力旺盛的超人氣動物原型師<span style=\"color: #e67e23;\"><strong>もんとみ</strong></span><br />繼<strong>\"散步狗狗系列\"</strong>(柯基、柴犬、博美、巴哥)<br />以及本月最新上市的<strong>\"泡泡倉鼠\"</strong>後<br />再度與Stand stones品牌攜手推出<span style=\"color: #e67e23;\"><strong>「模擬食物的動物們」</strong></span>✨<br />將過去發表於社群平台上備受喜愛與大量轉發的作品扭蛋化&nbsp;<br />👉全6種，各200日圓 &nbsp;(有夠超值！)<br /><br /><img src=\"/storage/photos/3/Teaser/2021/10/0630_01.jpg\" alt=\"\" width=\"100%\" /><br /><br />收錄棉花糖餅乾小海豹、芝麻糰子海豹<br />開心果小雞、牛奶糖熊熊、水鳥饅頭、博美包<br />每一款都好經典～軟萌的偽食動物們看起來美味又療癒🤤<br />　　　<br /><span style=\"color: #e67e23;\"><strong>「動物愛好系列-模擬食物的動物們」</strong></span><br />⛔️預計2021年10月上市<br />⛔️預購請洽全台玩具店或網拍賣場<br />⛔️非常時期可多利用店家的線上服務<br />⛔️監修中，可能會與圖片有所差異，敬請諒解　　　<br />　　　<br />#動物愛好系列 #擬態 #軟萌 #海豹 #偽裝食物的動物　　<br />#東匯玩具 #扭蛋 #轉蛋 #カプセルトイ #capsuletoy",
        "date": "2021-06-29",
        "share_comment_url": "https://toyway.jhong-demo.com.tw/news/reviewProduct?id=65",
        "img": "https://toyway.jhong-demo.com.tw/storage/photos/3/Teaser/2021/10/0630_02.jpg",
        "sort": 0,
        "state": 1,
        "delete": 0,
        "created_at": "2021-06-30T09:18:12.000000Z",
        "updated_at": "2021-06-30T09:20:31.000000Z"
    },
    {
        "id": 66,
        "category_id": 3,
        "title": "貓貓們最愛的所在！《動物愛好系列-箱子裡的貓》<br>好箱好香～～",
        "content": "10月Stand stones品牌的「動物愛好系列」第二款預告<br />與擅長繪製古代和風感與浮世繪筆觸的插畫家<br /><strong><span style=\"color: #e67e23;\">ナカヤマ皐月</span> (Satsuki Nakayama)</strong>合作<br />將其蜷縮在各種盒子、箱物的貓咪插圖實體化<br /><strong><span style=\"color: #e67e23;\">《動物愛好系列-箱子裡的貓》</span></strong><br />全5種，各300日圓<br />精選收錄了：財寶箱貓、跳箱貓<br />火柴盒貓、油香箱貓、鐵牢貓<br /><strong><span style=\"color: #e67e23;\">大尺寸和講究的細節表現很值得期待</span></strong>　<br /><br /><img src=\"/storage/photos/3/Teaser/2021/10/0701_CAT_02.jpg\" alt=\"\" width=\"100%\" />　　　　　　<br /><br /><br />另外會發現ナカヤマ皐月的創作<br />雖運用了貓咪喜歡蜷縮的特性<br />但不僅只表現在一般的盒箱，甚至涵蓋可承載或進駐的\"空間\"<br />例如本作的鐵牢😆 每款貓貓也會和主題箱做搭配<strong><br />最喜歡那隻歌舞伎貓貓，太爆笑太可愛啦～～</strong>😍<br />幽默逗趣的創意奇想，讓人看了心情大好！&nbsp;<br /><strong>希望帶給大家歡樂也是ナカヤマ皐月的創作忠旨</strong><br />⛔️預計2021年10月上市<br />⛔️預購請洽全台玩具店或網拍賣場<br />⛔️監修中，可能會與圖片有所差異，敬請諒解　　　<br />　　　　　<br />#動物愛好系列 #箱子裡的貓 #盒箱貓 #香箱座&nbsp;<br />#貓 #箱座り猫 #東匯玩具 #扭蛋 #轉蛋&nbsp;<br />#カプセルトイ #capsuletoy",
        "date": "2021-07-01",
        "share_comment_url": "https://toyway.jhong-demo.com.tw/news/reviewProduct?id=66",
        "img": "https://toyway.jhong-demo.com.tw/storage/photos/3/Teaser/2021/10/0701_CAT.jpg",
        "sort": 0,
        "state": 0,
        "delete": 0,
        "created_at": "2021-07-01T06:21:58.000000Z",
        "updated_at": "2021-07-02T01:43:14.000000Z"
    }
]